[
   
        {
			"short": "en",
			"name": "English"
        },
        {
			"short": "ch",
			"name": "Chinese"
        },
        {
			"short": "he",
			"name": "Hebrew"
        },
        {
			"short": "fr",
			"name": "French"
        },
        {
			"short": "es",
			"name": "Spanish"
        },
		{
			"short": "de",
			"name": "German"
        },
		{
			"short": "ja",
			"name": "Japanese"
        },{
			"short": "it",
			"name": "Italian"
        },{
			"short": "cs",
			"name": "Czech"
        }
]
