{
"prd_supplier" : "ספק","prd_price" : "מחיר","prd_qty" : "כמות","prd_cbm" : "מטר מעוקב","prd_itemno" : "מספר מוצר","prd_remarks" : "הערות","prd_weight" : "משקל","prd_super" : "","prd_desc" : "תיאור","prd_size" : "מידה","prd_material" : "חומר","prd_stock" : "מלאי","prd_day" : "יום","prd_month" : "חודש","prd_year" : "שנה","prd_prv" : "קודם","prd_prdlist" : "רשימת מוצרים","prd_categories" : "קטגוריות","prd_products" : "מוצרים","prd_booth" : "ספקים","welcome_quote" : "שם קולקציה","welcome_day" : "יום","welcome_month" : "חודש","welcome_year" : "שנה","welcome_market" : "שוק","welcome_customer" : "לקוח","menu_hi" : "שלום","menu_welcome" : "ברוכים השבים","menu_newquote" : "קולקציה חדשה","menu_customers" : "לקוחות","menu_myquotes" : "הקולקציות שלי","menu_catagories" : "קטגוריות","menu_managesupplier" : "ניהול ספק","menu_logout" : "התנתקות","login_logintext" : "התחברות","login_email" : "אימייל","login_password" : "סיסמה","login_forgot" : "שכחתי סיסמה","forgot_typeemail" : "הזן כתובת מייל","forgot_sendpass" : "שלח סיסמה","register_login" : "התחברות","register_usertype" : "סוג משתמש","register_buyer" : "קונה","register_supplier" : "ספק","register_email" : "אימייל","register_password" : "סיסמה","register_terms" : "ע\"י לחיצה על התחלה הנני מסכים לתנאי השימוש","customers_customers" : "לקוחות","customers_addnew" : "הוסף לקוח חדש","customers_company" : "חברה","customers_products" : "מוצרים","quotes_myquotes" : "הקולקציה שלי","quotes_products" : "מוצרים","toggles_title" : "הגדרות","toggles_back" : "אחורה","toggles_picture" : "תמונה","toggles_itemno" : "מס מוצר","toggles_price" : "מחיר","toggles_qty" : "כמות","toggles_cbm" : "מטר מעוקב","toggles_weight" : "משקל","toggles_supno" : "","toggles_remarks" : "הערות","toggles_desc" : "תיאור","toggles_size" : "גודל","toggles_material" : "חומר","toggles_stock" : "מלאי","toggles_custom1" : "שדה מותאם אישית 1","toggles_custom2" : "שדה מותאם אישית 2","toggles_custom3" : "שדה מותאם אישית 3","toggles_save" : "שמירה","customermanage_customers" : "לקוחות","customermanage_name" : "שם לקוח","customermanage_company" : "שם חברה","customermanage_email" : "אימייל","customermanage_mobile" : "נייד","customermanage_products" : "מוצרים","customermanage_uploading" : "מעלה תמונה אנא המתן","customermanage_save" : "שמירה","customermanage_list" : "רשימת לקוחות","supplier_shop" : "מס חנות","supplier_name" : "שם","supplier_mobile" : "נייד","supplier_qq" : "QQ","supplier_gate" : "שער","supplier_floor" : "קומה","supplier_street" : "רחוב","supplier_mail" : "מייל","markets_page" : "שווקים","markets_add" : "הוסף שוק חדש","markets_yiwu" : "YIWU FUTIEN","markets_save" : "שמירה","markets_title" : "שוק חדש","markets_name" : "שם השוק","markets_address" : "כתובת","markets_save" : "שמירה","suppliermanage_catagory" : "קטגוריה","suppliermanage_shop" : "מס חנות","suppliermanage_street" : "רחוב","suppliermanage_floor" : "קומה","suppliermanage_gate" : "מס שער","suppliermanage_market" : "שוק","suppliermanage_phone" : "טלפון","suppliermanage_mail" : "מייל","suppliermanage_qq" : "QQ",




"menu_languages" : "שפות"





}