{
    "cordova-plugin-whitelist": {
        "source": {
            "type": "registry",
            "id": "cordova-plugin-whitelist@1"
        },
        "is_top_level": true,
        "variables": {}
    },
    "org.apache.cordova.camera": {
        "source": {
            "type": "registry",
            "id": "org.apache.cordova.camera"
        },
        "is_top_level": true,
        "variables": {}
    },
    "cordova-plugin-file-transfer": {
        "source": {
            "type": "registry",
            "id": "cordova-plugin-file-transfer"
        },
        "is_top_level": true,
        "variables": {}
    },
    "cordova-plugin-file": {
        "source": {
            "type": "registry",
            "id": "cordova-plugin-file"
        },
        "is_top_level": true,
        "variables": {}
    },
    "phonegap-plugin-barcodescanner": {
        "source": {
            "type": "git",
            "url": "https://github.com/wildabeast/BarcodeScanner.git",
            "subdir": "."
        },
        "is_top_level": true,
        "variables": {}
    },
    "com.phonegap.plugins.barcodescanner": {
        "source": {
            "type": "registry",
            "id": "com.phonegap.plugins.barcodescanner"
        },
        "is_top_level": true,
        "variables": {}
    },
    "cordova-plugin-globalization": {
        "source": {
            "type": "git",
            "url": "https://git-wip-us.apache.org/repos/asf/cordova-plugin-globalization.git",
            "subdir": "."
        },
        "is_top_level": true,
        "variables": {}
    }
}